(kicad_sch (version 20230121) (generator eeschema)

  (uuid 015720bc-1f7c-4fca-8388-4043e8b0f20a)

  (paper "A4")

  (lib_symbols
    (symbol "Connector:Conn_01x08_Pin" (pin_names (offset 1.016) hide) (in_bom yes) (on_board yes)
      (property "Reference" "J" (at 0 10.16 0)
        (effects (font (size 1.27 1.27)))
      )
      (property "Value" "Conn_01x08_Pin" (at 0 -12.7 0)
        (effects (font (size 1.27 1.27)))
      )
      (property "Footprint" "" (at 0 0 0)
        (effects (font (size 1.27 1.27)) hide)
      )
      (property "Datasheet" "~" (at 0 0 0)
        (effects (font (size 1.27 1.27)) hide)
      )
      (property "ki_locked" "" (at 0 0 0)
        (effects (font (size 1.27 1.27)))
      )
      (property "ki_keywords" "connector" (at 0 0 0)
        (effects (font (size 1.27 1.27)) hide)
      )
      (property "ki_description" "Generic connector, single row, 01x08, script generated" (at 0 0 0)
        (effects (font (size 1.27 1.27)) hide)
      )
      (property "ki_fp_filters" "Connector*:*_1x??_*" (at 0 0 0)
        (effects (font (size 1.27 1.27)) hide)
      )
      (symbol "Conn_01x08_Pin_1_1"
        (polyline
          (pts
            (xy 1.27 -10.16)
            (xy 0.8636 -10.16)
          )
          (stroke (width 0.1524) (type default))
          (fill (type none))
        )
        (polyline
          (pts
            (xy 1.27 -7.62)
            (xy 0.8636 -7.62)
          )
          (stroke (width 0.1524) (type default))
          (fill (type none))
        )
        (polyline
          (pts
            (xy 1.27 -5.08)
            (xy 0.8636 -5.08)
          )
          (stroke (width 0.1524) (type default))
          (fill (type none))
        )
        (polyline
          (pts
            (xy 1.27 -2.54)
            (xy 0.8636 -2.54)
          )
          (stroke (width 0.1524) (type default))
          (fill (type none))
        )
        (polyline
          (pts
            (xy 1.27 0)
            (xy 0.8636 0)
          )
          (stroke (width 0.1524) (type default))
          (fill (type none))
        )
        (polyline
          (pts
            (xy 1.27 2.54)
            (xy 0.8636 2.54)
          )
          (stroke (width 0.1524) (type default))
          (fill (type none))
        )
        (polyline
          (pts
            (xy 1.27 5.08)
            (xy 0.8636 5.08)
          )
          (stroke (width 0.1524) (type default))
          (fill (type none))
        )
        (polyline
          (pts
            (xy 1.27 7.62)
            (xy 0.8636 7.62)
          )
          (stroke (width 0.1524) (type default))
          (fill (type none))
        )
        (rectangle (start 0.8636 -10.033) (end 0 -10.287)
          (stroke (width 0.1524) (type default))
          (fill (type outline))
        )
        (rectangle (start 0.8636 -7.493) (end 0 -7.747)
          (stroke (width 0.1524) (type default))
          (fill (type outline))
        )
        (rectangle (start 0.8636 -4.953) (end 0 -5.207)
          (stroke (width 0.1524) (type default))
          (fill (type outline))
        )
        (rectangle (start 0.8636 -2.413) (end 0 -2.667)
          (stroke (width 0.1524) (type default))
          (fill (type outline))
        )
        (rectangle (start 0.8636 0.127) (end 0 -0.127)
          (stroke (width 0.1524) (type default))
          (fill (type outline))
        )
        (rectangle (start 0.8636 2.667) (end 0 2.413)
          (stroke (width 0.1524) (type default))
          (fill (type outline))
        )
        (rectangle (start 0.8636 5.207) (end 0 4.953)
          (stroke (width 0.1524) (type default))
          (fill (type outline))
        )
        (rectangle (start 0.8636 7.747) (end 0 7.493)
          (stroke (width 0.1524) (type default))
          (fill (type outline))
        )
        (pin passive line (at 5.08 7.62 180) (length 3.81)
          (name "Pin_1" (effects (font (size 1.27 1.27))))
          (number "1" (effects (font (size 1.27 1.27))))
        )
        (pin passive line (at 5.08 5.08 180) (length 3.81)
          (name "Pin_2" (effects (font (size 1.27 1.27))))
          (number "2" (effects (font (size 1.27 1.27))))
        )
        (pin passive line (at 5.08 2.54 180) (length 3.81)
          (name "Pin_3" (effects (font (size 1.27 1.27))))
          (number "3" (effects (font (size 1.27 1.27))))
        )
        (pin passive line (at 5.08 0 180) (length 3.81)
          (name "Pin_4" (effects (font (size 1.27 1.27))))
          (number "4" (effects (font (size 1.27 1.27))))
        )
        (pin passive line (at 5.08 -2.54 180) (length 3.81)
          (name "Pin_5" (effects (font (size 1.27 1.27))))
          (number "5" (effects (font (size 1.27 1.27))))
        )
        (pin passive line (at 5.08 -5.08 180) (length 3.81)
          (name "Pin_6" (effects (font (size 1.27 1.27))))
          (number "6" (effects (font (size 1.27 1.27))))
        )
        (pin passive line (at 5.08 -7.62 180) (length 3.81)
          (name "Pin_7" (effects (font (size 1.27 1.27))))
          (number "7" (effects (font (size 1.27 1.27))))
        )
        (pin passive line (at 5.08 -10.16 180) (length 3.81)
          (name "Pin_8" (effects (font (size 1.27 1.27))))
          (number "8" (effects (font (size 1.27 1.27))))
        )
      )
    )
    (symbol "Connector_Generic:Conn_02x03_Odd_Even" (pin_names (offset 1.016) hide) (in_bom yes) (on_board yes)
      (property "Reference" "J" (at 1.27 5.08 0)
        (effects (font (size 1.27 1.27)))
      )
      (property "Value" "Conn_02x03_Odd_Even" (at 1.27 -5.08 0)
        (effects (font (size 1.27 1.27)))
      )
      (property "Footprint" "" (at 0 0 0)
        (effects (font (size 1.27 1.27)) hide)
      )
      (property "Datasheet" "~" (at 0 0 0)
        (effects (font (size 1.27 1.27)) hide)
      )
      (property "ki_keywords" "connector" (at 0 0 0)
        (effects (font (size 1.27 1.27)) hide)
      )
      (property "ki_description" "Generic connector, double row, 02x03, odd/even pin numbering scheme (row 1 odd numbers, row 2 even numbers), script generated (kicad-library-utils/schlib/autogen/connector/)" (at 0 0 0)
        (effects (font (size 1.27 1.27)) hide)
      )
      (property "ki_fp_filters" "Connector*:*_2x??_*" (at 0 0 0)
        (effects (font (size 1.27 1.27)) hide)
      )
      (symbol "Conn_02x03_Odd_Even_1_1"
        (rectangle (start -1.27 -2.413) (end 0 -2.667)
          (stroke (width 0.1524) (type default))
          (fill (type none))
        )
        (rectangle (start -1.27 0.127) (end 0 -0.127)
          (stroke (width 0.1524) (type default))
          (fill (type none))
        )
        (rectangle (start -1.27 2.667) (end 0 2.413)
          (stroke (width 0.1524) (type default))
          (fill (type none))
        )
        (rectangle (start -1.27 3.81) (end 3.81 -3.81)
          (stroke (width 0.254) (type default))
          (fill (type background))
        )
        (rectangle (start 3.81 -2.413) (end 2.54 -2.667)
          (stroke (width 0.1524) (type default))
          (fill (type none))
        )
        (rectangle (start 3.81 0.127) (end 2.54 -0.127)
          (stroke (width 0.1524) (type default))
          (fill (type none))
        )
        (rectangle (start 3.81 2.667) (end 2.54 2.413)
          (stroke (width 0.1524) (type default))
          (fill (type none))
        )
        (pin passive line (at -5.08 2.54 0) (length 3.81)
          (name "Pin_1" (effects (font (size 1.27 1.27))))
          (number "1" (effects (font (size 1.27 1.27))))
        )
        (pin passive line (at 7.62 2.54 180) (length 3.81)
          (name "Pin_2" (effects (font (size 1.27 1.27))))
          (number "2" (effects (font (size 1.27 1.27))))
        )
        (pin passive line (at -5.08 0 0) (length 3.81)
          (name "Pin_3" (effects (font (size 1.27 1.27))))
          (number "3" (effects (font (size 1.27 1.27))))
        )
        (pin passive line (at 7.62 0 180) (length 3.81)
          (name "Pin_4" (effects (font (size 1.27 1.27))))
          (number "4" (effects (font (size 1.27 1.27))))
        )
        (pin passive line (at -5.08 -2.54 0) (length 3.81)
          (name "Pin_5" (effects (font (size 1.27 1.27))))
          (number "5" (effects (font (size 1.27 1.27))))
        )
        (pin passive line (at 7.62 -2.54 180) (length 3.81)
          (name "Pin_6" (effects (font (size 1.27 1.27))))
          (number "6" (effects (font (size 1.27 1.27))))
        )
      )
    )
    (symbol "Device:LED" (pin_numbers hide) (pin_names (offset 1.016) hide) (in_bom yes) (on_board yes)
      (property "Reference" "D" (at 0 2.54 0)
        (effects (font (size 1.27 1.27)))
      )
      (property "Value" "LED" (at 0 -2.54 0)
        (effects (font (size 1.27 1.27)))
      )
      (property "Footprint" "" (at 0 0 0)
        (effects (font (size 1.27 1.27)) hide)
      )
      (property "Datasheet" "~" (at 0 0 0)
        (effects (font (size 1.27 1.27)) hide)
      )
      (property "ki_keywords" "LED diode" (at 0 0 0)
        (effects (font (size 1.27 1.27)) hide)
      )
      (property "ki_description" "Light emitting diode" (at 0 0 0)
        (effects (font (size 1.27 1.27)) hide)
      )
      (property "ki_fp_filters" "LED* LED_SMD:* LED_THT:*" (at 0 0 0)
        (effects (font (size 1.27 1.27)) hide)
      )
      (symbol "LED_0_1"
        (polyline
          (pts
            (xy -1.27 -1.27)
            (xy -1.27 1.27)
          )
          (stroke (width 0.254) (type default))
          (fill (type none))
        )
        (polyline
          (pts
            (xy -1.27 0)
            (xy 1.27 0)
          )
          (stroke (width 0) (type default))
          (fill (type none))
        )
        (polyline
          (pts
            (xy 1.27 -1.27)
            (xy 1.27 1.27)
            (xy -1.27 0)
            (xy 1.27 -1.27)
          )
          (stroke (width 0.254) (type default))
          (fill (type none))
        )
        (polyline
          (pts
            (xy -3.048 -0.762)
            (xy -4.572 -2.286)
            (xy -3.81 -2.286)
            (xy -4.572 -2.286)
            (xy -4.572 -1.524)
          )
          (stroke (width 0) (type default))
          (fill (type none))
        )
        (polyline
          (pts
            (xy -1.778 -0.762)
            (xy -3.302 -2.286)
            (xy -2.54 -2.286)
            (xy -3.302 -2.286)
            (xy -3.302 -1.524)
          )
          (stroke (width 0) (type default))
          (fill (type none))
        )
      )
      (symbol "LED_1_1"
        (pin passive line (at -3.81 0 0) (length 2.54)
          (name "K" (effects (font (size 1.27 1.27))))
          (number "1" (effects (font (size 1.27 1.27))))
        )
        (pin passive line (at 3.81 0 180) (length 2.54)
          (name "A" (effects (font (size 1.27 1.27))))
          (number "2" (effects (font (size 1.27 1.27))))
        )
      )
    )
    (symbol "Device:R" (pin_numbers hide) (pin_names (offset 0)) (in_bom yes) (on_board yes)
      (property "Reference" "R" (at 2.032 0 90)
        (effects (font (size 1.27 1.27)))
      )
      (property "Value" "R" (at 0 0 90)
        (effects (font (size 1.27 1.27)))
      )
      (property "Footprint" "" (at -1.778 0 90)
        (effects (font (size 1.27 1.27)) hide)
      )
      (property "Datasheet" "~" (at 0 0 0)
        (effects (font (size 1.27 1.27)) hide)
      )
      (property "ki_keywords" "R res resistor" (at 0 0 0)
        (effects (font (size 1.27 1.27)) hide)
      )
      (property "ki_description" "Resistor" (at 0 0 0)
        (effects (font (size 1.27 1.27)) hide)
      )
      (property "ki_fp_filters" "R_*" (at 0 0 0)
        (effects (font (size 1.27 1.27)) hide)
      )
      (symbol "R_0_1"
        (rectangle (start -1.016 -2.54) (end 1.016 2.54)
          (stroke (width 0.254) (type default))
          (fill (type none))
        )
      )
      (symbol "R_1_1"
        (pin passive line (at 0 3.81 270) (length 1.27)
          (name "~" (effects (font (size 1.27 1.27))))
          (number "1" (effects (font (size 1.27 1.27))))
        )
        (pin passive line (at 0 -3.81 90) (length 1.27)
          (name "~" (effects (font (size 1.27 1.27))))
          (number "2" (effects (font (size 1.27 1.27))))
        )
      )
    )
    (symbol "MCU_Microchip_ATtiny:ATtiny10-TS" (in_bom yes) (on_board yes)
      (property "Reference" "U" (at -12.7 13.97 0)
        (effects (font (size 1.27 1.27)) (justify left bottom))
      )
      (property "Value" "ATtiny10-TS" (at 2.54 -13.97 0)
        (effects (font (size 1.27 1.27)) (justify left top))
      )
      (property "Footprint" "Package_TO_SOT_SMD:SOT-23-6" (at 0 0 0)
        (effects (font (size 1.27 1.27) italic) hide)
      )
      (property "Datasheet" "http://ww1.microchip.com/downloads/en/DeviceDoc/Atmel-8127-AVR-8-bit-Microcontroller-ATtiny4-ATtiny5-ATtiny9-ATtiny10_Datasheet.pdf" (at 0 0 0)
        (effects (font (size 1.27 1.27)) hide)
      )
      (property "ki_keywords" "AVR 8bit Microcontroller tinyAVR" (at 0 0 0)
        (effects (font (size 1.27 1.27)) hide)
      )
      (property "ki_description" "12MHz, 1kB Flash, 32B SRAM, No EEPROM, ADC, SOT-23-6" (at 0 0 0)
        (effects (font (size 1.27 1.27)) hide)
      )
      (property "ki_fp_filters" "SOT?23?6*" (at 0 0 0)
        (effects (font (size 1.27 1.27)) hide)
      )
      (symbol "ATtiny10-TS_0_1"
        (rectangle (start -12.7 -12.7) (end 12.7 12.7)
          (stroke (width 0.254) (type default))
          (fill (type background))
        )
      )
      (symbol "ATtiny10-TS_1_1"
        (pin bidirectional line (at 15.24 7.62 180) (length 2.54)
          (name "PB0" (effects (font (size 1.27 1.27))))
          (number "1" (effects (font (size 1.27 1.27))))
        )
        (pin power_in line (at 0 -15.24 90) (length 2.54)
          (name "GND" (effects (font (size 1.27 1.27))))
          (number "2" (effects (font (size 1.27 1.27))))
        )
        (pin bidirectional line (at 15.24 5.08 180) (length 2.54)
          (name "PB1" (effects (font (size 1.27 1.27))))
          (number "3" (effects (font (size 1.27 1.27))))
        )
        (pin bidirectional line (at 15.24 2.54 180) (length 2.54)
          (name "PB2" (effects (font (size 1.27 1.27))))
          (number "4" (effects (font (size 1.27 1.27))))
        )
        (pin power_in line (at 0 15.24 270) (length 2.54)
          (name "VCC" (effects (font (size 1.27 1.27))))
          (number "5" (effects (font (size 1.27 1.27))))
        )
        (pin bidirectional line (at 15.24 0 180) (length 2.54)
          (name "~{RESET}/PB3" (effects (font (size 1.27 1.27))))
          (number "6" (effects (font (size 1.27 1.27))))
        )
      )
    )
    (symbol "power:+5V" (power) (pin_names (offset 0)) (in_bom yes) (on_board yes)
      (property "Reference" "#PWR" (at 0 -3.81 0)
        (effects (font (size 1.27 1.27)) hide)
      )
      (property "Value" "+5V" (at 0 3.556 0)
        (effects (font (size 1.27 1.27)))
      )
      (property "Footprint" "" (at 0 0 0)
        (effects (font (size 1.27 1.27)) hide)
      )
      (property "Datasheet" "" (at 0 0 0)
        (effects (font (size 1.27 1.27)) hide)
      )
      (property "ki_keywords" "global power" (at 0 0 0)
        (effects (font (size 1.27 1.27)) hide)
      )
      (property "ki_description" "Power symbol creates a global label with name \"+5V\"" (at 0 0 0)
        (effects (font (size 1.27 1.27)) hide)
      )
      (symbol "+5V_0_1"
        (polyline
          (pts
            (xy -0.762 1.27)
            (xy 0 2.54)
          )
          (stroke (width 0) (type default))
          (fill (type none))
        )
        (polyline
          (pts
            (xy 0 0)
            (xy 0 2.54)
          )
          (stroke (width 0) (type default))
          (fill (type none))
        )
        (polyline
          (pts
            (xy 0 2.54)
            (xy 0.762 1.27)
          )
          (stroke (width 0) (type default))
          (fill (type none))
        )
      )
      (symbol "+5V_1_1"
        (pin power_in line (at 0 0 90) (length 0) hide
          (name "+5V" (effects (font (size 1.27 1.27))))
          (number "1" (effects (font (size 1.27 1.27))))
        )
      )
    )
    (symbol "power:GND" (power) (pin_names (offset 0)) (in_bom yes) (on_board yes)
      (property "Reference" "#PWR" (at 0 -6.35 0)
        (effects (font (size 1.27 1.27)) hide)
      )
      (property "Value" "GND" (at 0 -3.81 0)
        (effects (font (size 1.27 1.27)))
      )
      (property "Footprint" "" (at 0 0 0)
        (effects (font (size 1.27 1.27)) hide)
      )
      (property "Datasheet" "" (at 0 0 0)
        (effects (font (size 1.27 1.27)) hide)
      )
      (property "ki_keywords" "global power" (at 0 0 0)
        (effects (font (size 1.27 1.27)) hide)
      )
      (property "ki_description" "Power symbol creates a global label with name \"GND\" , ground" (at 0 0 0)
        (effects (font (size 1.27 1.27)) hide)
      )
      (symbol "GND_0_1"
        (polyline
          (pts
            (xy 0 0)
            (xy 0 -1.27)
            (xy 1.27 -1.27)
            (xy 0 -2.54)
            (xy -1.27 -1.27)
            (xy 0 -1.27)
          )
          (stroke (width 0) (type default))
          (fill (type none))
        )
      )
      (symbol "GND_1_1"
        (pin power_in line (at 0 0 270) (length 0) hide
          (name "GND" (effects (font (size 1.27 1.27))))
          (number "1" (effects (font (size 1.27 1.27))))
        )
      )
    )
  )

  (junction (at 190.5 132.08) (diameter 0) (color 0 0 0 0)
    (uuid 08a1c80f-3f0a-4ff4-84cf-19d0e8ef9788)
  )
  (junction (at 177.8 119.38) (diameter 0) (color 0 0 0 0)
    (uuid 21860f98-4957-408c-9594-cc06212f3530)
  )
  (junction (at 143.51 73.66) (diameter 0) (color 0 0 0 0)
    (uuid 2b519a0f-52a2-46a2-bff7-6667c27bf262)
  )
  (junction (at 132.08 76.2) (diameter 0) (color 0 0 0 0)
    (uuid 2f856db4-44a3-4c67-b388-7fbea748ba24)
  )
  (junction (at 171.45 90.17) (diameter 0) (color 0 0 0 0)
    (uuid 31e4b129-4d65-4ac7-bae2-82f73e501463)
  )
  (junction (at 177.8 135.89) (diameter 0) (color 0 0 0 0)
    (uuid 350be273-704e-4700-89d3-684632ced144)
  )
  (junction (at 190.5 101.6) (diameter 0) (color 0 0 0 0)
    (uuid 3b4d28ab-9348-4457-8e95-d978665c3487)
  )
  (junction (at 185.42 105.41) (diameter 0) (color 0 0 0 0)
    (uuid 3c779911-ef40-4643-b8a1-d5b29742a4aa)
  )
  (junction (at 185.42 90.17) (diameter 0) (color 0 0 0 0)
    (uuid 5982e3e7-577b-48fc-95e2-c9d557e3ed7a)
  )
  (junction (at 205.74 105.41) (diameter 0) (color 0 0 0 0)
    (uuid 5a2169cd-817f-4d19-a7ff-cf71332f4f74)
  )
  (junction (at 168.91 135.89) (diameter 0) (color 0 0 0 0)
    (uuid 5adfb912-ed34-4138-965f-d1c219271f51)
  )
  (junction (at 185.42 120.65) (diameter 0) (color 0 0 0 0)
    (uuid 5f6d9ca1-da84-4b0c-8bf1-0af53d84245c)
  )
  (junction (at 190.5 85.09) (diameter 0) (color 0 0 0 0)
    (uuid 65a0eced-f722-4847-9f10-d719af022c8e)
  )
  (junction (at 132.08 81.28) (diameter 0) (color 0 0 0 0)
    (uuid 6b2f0456-57e9-4b17-bbf1-2e7c89da6c26)
  )
  (junction (at 198.12 120.65) (diameter 0) (color 0 0 0 0)
    (uuid 6d9323d9-bcb6-41f0-ada5-cd6412bc9f14)
  )
  (junction (at 171.45 119.38) (diameter 0) (color 0 0 0 0)
    (uuid 89e62cc7-bd8b-44ec-83a0-7e03a7fe840f)
  )
  (junction (at 177.8 90.17) (diameter 0) (color 0 0 0 0)
    (uuid 96f5bb9d-097f-4949-9a36-0841efb8104e)
  )
  (junction (at 198.12 106.68) (diameter 0) (color 0 0 0 0)
    (uuid b459d72a-f097-4a71-8e60-f0ed21c92e60)
  )
  (junction (at 177.8 104.14) (diameter 0) (color 0 0 0 0)
    (uuid c0e4fd81-cd48-4730-b33c-cdc05c0fa85f)
  )
  (junction (at 190.5 115.57) (diameter 0) (color 0 0 0 0)
    (uuid c8f0a45f-cbad-46c9-a018-53d024aaaeaf)
  )
  (junction (at 205.74 120.65) (diameter 0) (color 0 0 0 0)
    (uuid d795f348-13a2-4d66-9483-ab2f5a6a170c)
  )
  (junction (at 185.42 135.89) (diameter 0) (color 0 0 0 0)
    (uuid edd91bd6-3e74-4fe0-a786-e1006b8af3fd)
  )
  (junction (at 171.45 104.14) (diameter 0) (color 0 0 0 0)
    (uuid f81beb69-04f7-46c2-8d12-1646cd4af202)
  )

  (wire (pts (xy 205.74 118.11) (xy 205.74 120.65))
    (stroke (width 0) (type default))
    (uuid 022f669e-b59e-4795-89c1-e82b3ca51549)
  )
  (wire (pts (xy 127 76.2) (xy 132.08 76.2))
    (stroke (width 0) (type default))
    (uuid 0418df6e-7f2b-47ee-aba2-aa7f9ecd1f6c)
  )
  (wire (pts (xy 185.42 90.17) (xy 190.5 90.17))
    (stroke (width 0) (type default))
    (uuid 05828af6-7f85-4b6e-8d14-c8268553c206)
  )
  (wire (pts (xy 143.51 73.66) (xy 143.51 90.17))
    (stroke (width 0) (type default))
    (uuid 0d0baafe-67c2-4aa2-a74b-4221ee44000a)
  )
  (wire (pts (xy 185.42 133.35) (xy 185.42 135.89))
    (stroke (width 0) (type default))
    (uuid 0d2e1a75-94ec-4d99-97e6-6ac427c64c67)
  )
  (wire (pts (xy 190.5 101.6) (xy 190.5 105.41))
    (stroke (width 0) (type default))
    (uuid 0db6a361-af2e-4745-ad6a-86aa57733d32)
  )
  (wire (pts (xy 153.67 129.54) (xy 168.91 129.54))
    (stroke (width 0) (type default))
    (uuid 0e42e52b-948b-4aef-98af-1c2ef9dc0368)
  )
  (wire (pts (xy 198.12 106.68) (xy 198.12 107.95))
    (stroke (width 0) (type default))
    (uuid 107a856c-63f2-407b-aa2a-a50ca68eafd8)
  )
  (wire (pts (xy 177.8 118.11) (xy 177.8 119.38))
    (stroke (width 0) (type default))
    (uuid 127c762f-cc53-4fbb-8593-4e8c76fee978)
  )
  (wire (pts (xy 190.5 132.08) (xy 190.5 135.89))
    (stroke (width 0) (type default))
    (uuid 13b3d906-552e-48fb-ab22-d162920143c8)
  )
  (wire (pts (xy 190.5 97.79) (xy 190.5 101.6))
    (stroke (width 0) (type default))
    (uuid 14303c1f-958e-4d7b-814a-ea47d3e5cffd)
  )
  (wire (pts (xy 190.5 44.45) (xy 190.5 52.07))
    (stroke (width 0) (type default))
    (uuid 1526303d-5581-4dca-894a-86ad40f0823a)
  )
  (wire (pts (xy 185.42 135.89) (xy 185.42 138.43))
    (stroke (width 0) (type default))
    (uuid 198dfad8-2e55-468c-8aa4-3ff537f15444)
  )
  (wire (pts (xy 205.74 120.65) (xy 214.63 120.65))
    (stroke (width 0) (type default))
    (uuid 1ac084cd-039c-4dce-89b4-1fd9cedfb93b)
  )
  (wire (pts (xy 153.67 90.17) (xy 171.45 90.17))
    (stroke (width 0) (type default))
    (uuid 1cd05734-dee9-4f44-8144-f22ff5c553fb)
  )
  (wire (pts (xy 205.74 105.41) (xy 210.82 105.41))
    (stroke (width 0) (type default))
    (uuid 26ae8e1b-2bce-4ef2-91c0-4d89d74953b8)
  )
  (wire (pts (xy 177.8 104.14) (xy 177.8 107.95))
    (stroke (width 0) (type default))
    (uuid 2793a85b-2bf4-4da0-86b4-cbf10834e804)
  )
  (wire (pts (xy 190.5 85.09) (xy 190.5 90.17))
    (stroke (width 0) (type default))
    (uuid 2bc4b4e2-199d-4304-8199-f3f1f58826fb)
  )
  (wire (pts (xy 154.94 39.37) (xy 154.94 73.66))
    (stroke (width 0) (type default))
    (uuid 2bccabd3-603f-4b89-8be2-179d331f6440)
  )
  (wire (pts (xy 171.45 128.27) (xy 190.5 128.27))
    (stroke (width 0) (type default))
    (uuid 359f4f29-ad06-4014-800f-81cce8433ae4)
  )
  (wire (pts (xy 185.42 87.63) (xy 185.42 90.17))
    (stroke (width 0) (type default))
    (uuid 391616f7-4ca9-401c-b423-5c46baa70c14)
  )
  (wire (pts (xy 177.8 102.87) (xy 177.8 104.14))
    (stroke (width 0) (type default))
    (uuid 3ad83332-7dc1-4f8f-a93b-d2f8e158ad12)
  )
  (wire (pts (xy 171.45 119.38) (xy 177.8 119.38))
    (stroke (width 0) (type default))
    (uuid 3eb67867-e45d-48df-b317-f6b01d7f90f3)
  )
  (wire (pts (xy 190.5 101.6) (xy 194.31 101.6))
    (stroke (width 0) (type default))
    (uuid 3ebea3ad-7e44-4bc1-85d1-5571640a64a5)
  )
  (wire (pts (xy 171.45 97.79) (xy 190.5 97.79))
    (stroke (width 0) (type default))
    (uuid 41859d5f-5bba-4871-8431-eb5755d9ffec)
  )
  (wire (pts (xy 194.31 120.65) (xy 198.12 120.65))
    (stroke (width 0) (type default))
    (uuid 467b6222-1773-45fd-996d-184788ab82f4)
  )
  (wire (pts (xy 185.42 105.41) (xy 185.42 107.95))
    (stroke (width 0) (type default))
    (uuid 499fa0f8-4d3f-4247-817a-0655721555b9)
  )
  (wire (pts (xy 182.88 46.99) (xy 186.69 46.99))
    (stroke (width 0) (type default))
    (uuid 4b70e7f5-d136-483a-a07a-8d80ec0c4620)
  )
  (wire (pts (xy 185.42 120.65) (xy 190.5 120.65))
    (stroke (width 0) (type default))
    (uuid 4ce81d31-be11-47c9-85a9-5846baaf9d50)
  )
  (wire (pts (xy 143.51 90.17) (xy 146.05 90.17))
    (stroke (width 0) (type default))
    (uuid 50ef5546-3c0a-428c-a632-36333739137f)
  )
  (wire (pts (xy 171.45 119.38) (xy 171.45 128.27))
    (stroke (width 0) (type default))
    (uuid 524940bc-4181-48fd-ad05-123932720d40)
  )
  (wire (pts (xy 132.08 76.2) (xy 140.97 76.2))
    (stroke (width 0) (type default))
    (uuid 53294119-6382-4e76-92ea-6fcce8c14280)
  )
  (wire (pts (xy 182.88 41.91) (xy 189.23 41.91))
    (stroke (width 0) (type default))
    (uuid 53ab05aa-9be7-47c5-a90c-328ddbb0bccb)
  )
  (wire (pts (xy 185.42 102.87) (xy 185.42 105.41))
    (stroke (width 0) (type default))
    (uuid 59f01068-4f98-4abf-914b-0ba3d37eeb9e)
  )
  (wire (pts (xy 185.42 105.41) (xy 190.5 105.41))
    (stroke (width 0) (type default))
    (uuid 5bdf0912-cb05-436b-aabb-10fc98a8b5b5)
  )
  (wire (pts (xy 190.5 115.57) (xy 190.5 120.65))
    (stroke (width 0) (type default))
    (uuid 5df4d864-b0da-418e-9d28-b4c950686a53)
  )
  (wire (pts (xy 190.5 115.57) (xy 194.31 115.57))
    (stroke (width 0) (type default))
    (uuid 60eb9879-3c3b-4a3b-a1e9-14d355b2af15)
  )
  (wire (pts (xy 132.08 81.28) (xy 134.62 81.28))
    (stroke (width 0) (type default))
    (uuid 622ec0be-5900-4c9b-9f93-0a80c3c99a4f)
  )
  (wire (pts (xy 182.88 57.15) (xy 185.42 57.15))
    (stroke (width 0) (type default))
    (uuid 6330695f-e3e1-48f5-86e0-c6884637d106)
  )
  (wire (pts (xy 210.82 105.41) (xy 210.82 132.08))
    (stroke (width 0) (type default))
    (uuid 6630bba8-afb5-49ca-ae0d-870fb3fcb328)
  )
  (wire (pts (xy 163.83 135.89) (xy 168.91 135.89))
    (stroke (width 0) (type default))
    (uuid 6c253839-e9ae-4b03-9487-3060ae044a4b)
  )
  (wire (pts (xy 171.45 104.14) (xy 177.8 104.14))
    (stroke (width 0) (type default))
    (uuid 6dbbe55e-8d8c-46a7-a969-3cff2c7c6e8d)
  )
  (wire (pts (xy 198.12 118.11) (xy 198.12 120.65))
    (stroke (width 0) (type default))
    (uuid 705be5eb-c09c-48e3-b2c7-01642ef72fa1)
  )
  (wire (pts (xy 194.31 106.68) (xy 198.12 106.68))
    (stroke (width 0) (type default))
    (uuid 70ce1343-49b3-4e9e-bf9a-6885fa5cd324)
  )
  (wire (pts (xy 182.88 54.61) (xy 189.23 54.61))
    (stroke (width 0) (type default))
    (uuid 72952179-bb1b-4f44-a1e6-d86198362e5f)
  )
  (wire (pts (xy 190.5 80.01) (xy 190.5 85.09))
    (stroke (width 0) (type default))
    (uuid 74cf470c-6b09-40fa-9c20-fdd5918b689a)
  )
  (wire (pts (xy 198.12 120.65) (xy 198.12 123.19))
    (stroke (width 0) (type default))
    (uuid 75ebbb85-160b-4746-b8e0-e6d1601406b8)
  )
  (wire (pts (xy 186.69 46.99) (xy 186.69 59.69))
    (stroke (width 0) (type default))
    (uuid 798623f5-5068-4d8a-90aa-dd81b1fbd936)
  )
  (wire (pts (xy 182.88 49.53) (xy 185.42 49.53))
    (stroke (width 0) (type default))
    (uuid 7a6d07c8-65f6-4e68-bad1-87627a6773d6)
  )
  (wire (pts (xy 163.83 80.01) (xy 190.5 80.01))
    (stroke (width 0) (type default))
    (uuid 80645933-dbf2-4470-bf97-383eecf36d6f)
  )
  (wire (pts (xy 134.62 41.91) (xy 134.62 81.28))
    (stroke (width 0) (type default))
    (uuid 811e8479-ad42-4747-a7b1-7d86ec34ea0b)
  )
  (wire (pts (xy 153.67 104.14) (xy 171.45 104.14))
    (stroke (width 0) (type default))
    (uuid 8555f272-461a-4a9e-9011-cc079a26e2a7)
  )
  (wire (pts (xy 185.42 49.53) (xy 185.42 57.15))
    (stroke (width 0) (type default))
    (uuid 86ff40dc-f192-43e8-8bed-0aedfbea258d)
  )
  (wire (pts (xy 205.74 102.87) (xy 205.74 105.41))
    (stroke (width 0) (type default))
    (uuid 87c540c4-bbec-418d-a27e-f9eb8e3ff5ed)
  )
  (wire (pts (xy 168.91 135.89) (xy 177.8 135.89))
    (stroke (width 0) (type default))
    (uuid 8e59a19a-f8da-49cf-ae19-defbdcc83308)
  )
  (wire (pts (xy 185.42 118.11) (xy 185.42 120.65))
    (stroke (width 0) (type default))
    (uuid 919a2f21-7dfd-49bf-91f9-a949343be222)
  )
  (wire (pts (xy 182.88 52.07) (xy 190.5 52.07))
    (stroke (width 0) (type default))
    (uuid 95cd329b-d542-47c2-84e3-707f900eb3d8)
  )
  (wire (pts (xy 198.12 102.87) (xy 198.12 106.68))
    (stroke (width 0) (type default))
    (uuid 9b80cc39-5299-428e-b7d0-e859faaa85ab)
  )
  (wire (pts (xy 185.42 120.65) (xy 185.42 123.19))
    (stroke (width 0) (type default))
    (uuid 9eaf9004-44af-473b-b5f0-ae3f2d4b9fd1)
  )
  (wire (pts (xy 205.74 120.65) (xy 205.74 123.19))
    (stroke (width 0) (type default))
    (uuid 9efba0b4-111c-4617-9117-5f4d3696572c)
  )
  (wire (pts (xy 185.42 135.89) (xy 190.5 135.89))
    (stroke (width 0) (type default))
    (uuid a2c1470d-0444-4fbf-9f4d-b9fe0fb71d21)
  )
  (wire (pts (xy 171.45 90.17) (xy 177.8 90.17))
    (stroke (width 0) (type default))
    (uuid a2eea63f-71e0-4ce8-9d42-4441c0e6a50c)
  )
  (wire (pts (xy 149.86 39.37) (xy 154.94 39.37))
    (stroke (width 0) (type default))
    (uuid a74bd991-3ce9-4417-9e96-2f865a08ae4c)
  )
  (wire (pts (xy 171.45 111.76) (xy 190.5 111.76))
    (stroke (width 0) (type default))
    (uuid aa153b71-2542-4de7-a7ef-d1d042378557)
  )
  (wire (pts (xy 214.63 85.09) (xy 214.63 120.65))
    (stroke (width 0) (type default))
    (uuid aa5f7260-745a-4f5d-84a1-abfd1d493658)
  )
  (wire (pts (xy 132.08 39.37) (xy 132.08 76.2))
    (stroke (width 0) (type default))
    (uuid ab7c80ae-1727-4391-aa5d-2ba538731b5d)
  )
  (wire (pts (xy 190.5 132.08) (xy 210.82 132.08))
    (stroke (width 0) (type default))
    (uuid accc141b-ac85-4760-85d5-f6f2aae2fdbd)
  )
  (wire (pts (xy 190.5 85.09) (xy 214.63 85.09))
    (stroke (width 0) (type default))
    (uuid af0a3dff-80f5-43fb-b82d-e5b71ecb3a95)
  )
  (wire (pts (xy 132.08 129.54) (xy 146.05 129.54))
    (stroke (width 0) (type default))
    (uuid b48d5544-df99-446e-86af-d67853a1b902)
  )
  (wire (pts (xy 190.5 111.76) (xy 190.5 115.57))
    (stroke (width 0) (type default))
    (uuid b7a8545e-1cd8-4cdd-a29f-f7495c067a6b)
  )
  (wire (pts (xy 182.88 44.45) (xy 190.5 44.45))
    (stroke (width 0) (type default))
    (uuid ba0a7789-d5eb-4b6d-b128-8636e0cb3ffb)
  )
  (wire (pts (xy 205.74 105.41) (xy 205.74 107.95))
    (stroke (width 0) (type default))
    (uuid bb184008-50f5-46d2-932c-30f59a5c1b32)
  )
  (wire (pts (xy 127 81.28) (xy 132.08 81.28))
    (stroke (width 0) (type default))
    (uuid bca448d4-548d-4c26-9814-318cad5f368a)
  )
  (wire (pts (xy 143.51 73.66) (xy 154.94 73.66))
    (stroke (width 0) (type default))
    (uuid bd56b7c7-34ce-4458-a26c-586b8a9c694d)
  )
  (wire (pts (xy 189.23 41.91) (xy 189.23 54.61))
    (stroke (width 0) (type default))
    (uuid bf8085d0-8ff5-42ef-9a5e-993e2935da18)
  )
  (wire (pts (xy 127 78.74) (xy 138.43 78.74))
    (stroke (width 0) (type default))
    (uuid c361ae62-ee32-4d62-b7f9-bb0e371ad7bd)
  )
  (wire (pts (xy 171.45 104.14) (xy 171.45 111.76))
    (stroke (width 0) (type default))
    (uuid c58f16b9-30db-49f4-8bea-9413279478d4)
  )
  (wire (pts (xy 194.31 115.57) (xy 194.31 120.65))
    (stroke (width 0) (type default))
    (uuid c7b936d3-ecbf-4a8c-80d2-e30cfee50c08)
  )
  (wire (pts (xy 168.91 129.54) (xy 168.91 135.89))
    (stroke (width 0) (type default))
    (uuid ca6f457e-216f-47bb-b5fa-141f58ec40e1)
  )
  (wire (pts (xy 140.97 76.2) (xy 140.97 104.14))
    (stroke (width 0) (type default))
    (uuid cebe21b7-46bf-44ac-96c5-21ad807d995f)
  )
  (wire (pts (xy 138.43 119.38) (xy 146.05 119.38))
    (stroke (width 0) (type default))
    (uuid cf02e93a-7368-4278-8c58-a61608a450f5)
  )
  (wire (pts (xy 177.8 135.89) (xy 177.8 138.43))
    (stroke (width 0) (type default))
    (uuid d0eff52c-4111-4857-8cbd-c93209de4a90)
  )
  (wire (pts (xy 153.67 119.38) (xy 171.45 119.38))
    (stroke (width 0) (type default))
    (uuid d1143fab-6aa8-4893-b426-8c541bbc8828)
  )
  (wire (pts (xy 177.8 119.38) (xy 177.8 123.19))
    (stroke (width 0) (type default))
    (uuid d44a86c2-54db-42a5-bcd1-419ddd6150ee)
  )
  (wire (pts (xy 134.62 41.91) (xy 137.16 41.91))
    (stroke (width 0) (type default))
    (uuid d4c5ed54-6c1e-47dd-91fc-9ed342897f12)
  )
  (wire (pts (xy 127 73.66) (xy 143.51 73.66))
    (stroke (width 0) (type default))
    (uuid e19fd1a5-e269-4a13-a536-bec30dab77c8)
  )
  (wire (pts (xy 138.43 78.74) (xy 138.43 119.38))
    (stroke (width 0) (type default))
    (uuid e2358347-1ba8-49e6-8fbc-b3523b0f84ac)
  )
  (wire (pts (xy 132.08 81.28) (xy 132.08 129.54))
    (stroke (width 0) (type default))
    (uuid e7c0558a-89fa-4e38-bc82-12e966bb0473)
  )
  (wire (pts (xy 177.8 87.63) (xy 177.8 90.17))
    (stroke (width 0) (type default))
    (uuid e9b7112c-6c7a-49e9-9cc5-379aad268541)
  )
  (wire (pts (xy 171.45 90.17) (xy 171.45 97.79))
    (stroke (width 0) (type default))
    (uuid ed7c837d-d34d-4e7c-8d7e-75b297b64dc7)
  )
  (wire (pts (xy 185.42 90.17) (xy 185.42 92.71))
    (stroke (width 0) (type default))
    (uuid ee4c76af-0e3e-41c4-811c-9a4bb852c6bc)
  )
  (wire (pts (xy 177.8 90.17) (xy 177.8 92.71))
    (stroke (width 0) (type default))
    (uuid eeb9e353-eac9-4bd6-90b4-d3d61be97c0e)
  )
  (wire (pts (xy 140.97 104.14) (xy 146.05 104.14))
    (stroke (width 0) (type default))
    (uuid ef6ea912-4760-4069-a1af-831f462eb27b)
  )
  (wire (pts (xy 194.31 101.6) (xy 194.31 106.68))
    (stroke (width 0) (type default))
    (uuid f1eb655f-2927-4453-ae76-839a902b0917)
  )
  (wire (pts (xy 132.08 39.37) (xy 137.16 39.37))
    (stroke (width 0) (type default))
    (uuid f42c228b-7e0d-4ead-965a-df4a9f96a4bb)
  )
  (wire (pts (xy 190.5 128.27) (xy 190.5 132.08))
    (stroke (width 0) (type default))
    (uuid f7d2a44d-adbb-42b1-83ef-0b41255a544b)
  )
  (wire (pts (xy 177.8 133.35) (xy 177.8 135.89))
    (stroke (width 0) (type default))
    (uuid f9b46535-8a55-49da-b4ff-7bd1e5598756)
  )
  (wire (pts (xy 163.83 80.01) (xy 163.83 135.89))
    (stroke (width 0) (type default))
    (uuid fcdc5be2-ffdf-4b37-8081-3d03f3fde2df)
  )
  (wire (pts (xy 182.88 59.69) (xy 186.69 59.69))
    (stroke (width 0) (type default))
    (uuid fd152d78-554c-4373-b40d-ef2a60ba2951)
  )

  (label "IND2" (at 157.48 104.14 0) (fields_autoplaced)
    (effects (font (size 1.27 1.27)) (justify left bottom))
    (uuid 06165cbe-6ba5-44b0-af48-c67b565904ad)
  )
  (label "A3" (at 128.27 78.74 0) (fields_autoplaced)
    (effects (font (size 1.27 1.27)) (justify left bottom))
    (uuid 220406d4-c412-4cc1-bfc8-978e98c7dc66)
  )
  (label "IND3" (at 186.69 58.42 0) (fields_autoplaced)
    (effects (font (size 1.27 1.27)) (justify left bottom))
    (uuid 4b97acf4-aca5-42fd-8e6d-f2b27123be05)
  )
  (label "IND1" (at 158.75 90.17 0) (fields_autoplaced)
    (effects (font (size 1.27 1.27)) (justify left bottom))
    (uuid 5e1f3910-cb59-4f7f-8ab5-aee9316d4a0c)
  )
  (label "A2" (at 128.27 76.2 0) (fields_autoplaced)
    (effects (font (size 1.27 1.27)) (justify left bottom))
    (uuid 5fc0d4cc-614a-4a0e-8507-2dc46a0623e0)
  )
  (label "IND1" (at 187.96 41.91 0) (fields_autoplaced)
    (effects (font (size 1.27 1.27)) (justify left bottom))
    (uuid 637e83b4-419a-4a1a-bfce-1236a60b7e73)
  )
  (label "IND2" (at 190.5 46.99 0) (fields_autoplaced)
    (effects (font (size 1.27 1.27)) (justify left bottom))
    (uuid 6cef54cb-ec33-4174-9de1-e677563bf641)
  )
  (label "A4" (at 128.27 81.28 0) (fields_autoplaced)
    (effects (font (size 1.27 1.27)) (justify left bottom))
    (uuid 75201a91-d484-40da-87c1-b15ec615372a)
  )
  (label "A1" (at 128.27 73.66 0) (fields_autoplaced)
    (effects (font (size 1.27 1.27)) (justify left bottom))
    (uuid 7a675c9f-77d0-4d1d-bd01-0960805bfd51)
  )
  (label "IND4" (at 157.48 129.54 0) (fields_autoplaced)
    (effects (font (size 1.27 1.27)) (justify left bottom))
    (uuid 8f8ebbbc-60df-4f0d-9835-77ead77b2758)
  )
  (label "IND4" (at 182.88 49.53 0) (fields_autoplaced)
    (effects (font (size 1.27 1.27)) (justify left bottom))
    (uuid 9f65ff7d-2cf5-4bc2-9b90-bc2afbef05d2)
  )
  (label "IND3" (at 157.48 119.38 0) (fields_autoplaced)
    (effects (font (size 1.27 1.27)) (justify left bottom))
    (uuid d4b46865-7973-4f1f-92c5-7f6397c47f3b)
  )

  (symbol (lib_id "Device:LED") (at 181.61 123.19 0) (mirror y) (unit 1)
    (in_bom yes) (on_board yes) (dnp no)
    (uuid 04b4791f-82f8-4d12-9596-fcf91306e33f)
    (property "Reference" "D6" (at 183.1975 118.11 0)
      (effects (font (size 1.27 1.27)))
    )
    (property "Value" "LED" (at 183.1975 120.65 0)
      (effects (font (size 1.27 1.27)))
    )
    (property "Footprint" "LED_SMD:LED_0805_2012Metric_Pad1.15x1.40mm_HandSolder" (at 181.61 123.19 0)
      (effects (font (size 1.27 1.27)) hide)
    )
    (property "Datasheet" "~" (at 181.61 123.19 0)
      (effects (font (size 1.27 1.27)) hide)
    )
    (pin "1" (uuid 553ce345-2570-416e-aa08-aaaf586dac32))
    (pin "2" (uuid f118c849-d705-44a3-8f30-c0cda01d587d))
    (instances
      (project "tornado"
        (path "/015720bc-1f7c-4fca-8388-4043e8b0f20a"
          (reference "D6") (unit 1)
        )
      )
    )
  )

  (symbol (lib_id "MCU_Microchip_ATtiny:ATtiny10-TS") (at 111.76 81.28 0) (unit 1)
    (in_bom yes) (on_board yes) (dnp no) (fields_autoplaced)
    (uuid 156faf63-bc88-4314-ae44-df72e29f68fa)
    (property "Reference" "U1" (at 97.79 80.645 0)
      (effects (font (size 1.27 1.27)) (justify right))
    )
    (property "Value" "ATtiny10-TS" (at 97.79 83.185 0)
      (effects (font (size 1.27 1.27)) (justify right))
    )
    (property "Footprint" "Package_TO_SOT_SMD:SOT-23-6" (at 111.76 81.28 0)
      (effects (font (size 1.27 1.27) italic) hide)
    )
    (property "Datasheet" "http://ww1.microchip.com/downloads/en/DeviceDoc/Atmel-8127-AVR-8-bit-Microcontroller-ATtiny4-ATtiny5-ATtiny9-ATtiny10_Datasheet.pdf" (at 111.76 81.28 0)
      (effects (font (size 1.27 1.27)) hide)
    )
    (pin "1" (uuid 72f36458-7d92-4a28-a063-e60f904ad46b))
    (pin "2" (uuid bf672be7-f43b-447b-9751-5c488b97b837))
    (pin "3" (uuid 55734f39-c2b2-47c1-a4ae-d406b4046710))
    (pin "4" (uuid 79b5b8ae-1489-4be8-b339-9d5c46b651cd))
    (pin "5" (uuid c7002632-52ac-414b-b774-ed6e3edb028a))
    (pin "6" (uuid 22ed1cf3-5445-4a8d-90ab-e719d79f27d6))
    (instances
      (project "tornado"
        (path "/015720bc-1f7c-4fca-8388-4043e8b0f20a"
          (reference "U1") (unit 1)
        )
      )
      (project "chaser6"
        (path "/f19750a6-fe49-41e7-af2b-e0ac114523b3"
          (reference "U1") (unit 1)
        )
      )
    )
  )

  (symbol (lib_id "Device:LED") (at 201.93 102.87 0) (unit 1)
    (in_bom yes) (on_board yes) (dnp no) (fields_autoplaced)
    (uuid 32202354-23c5-4e8a-b98e-b1838152c973)
    (property "Reference" "D9" (at 200.3425 97.79 0)
      (effects (font (size 1.27 1.27)))
    )
    (property "Value" "LED" (at 200.3425 100.33 0)
      (effects (font (size 1.27 1.27)))
    )
    (property "Footprint" "LED_SMD:LED_0805_2012Metric_Pad1.15x1.40mm_HandSolder" (at 201.93 102.87 0)
      (effects (font (size 1.27 1.27)) hide)
    )
    (property "Datasheet" "~" (at 201.93 102.87 0)
      (effects (font (size 1.27 1.27)) hide)
    )
    (pin "1" (uuid ccfe26d6-4671-4d93-9e5d-74ddd10fe74d))
    (pin "2" (uuid 8fe26814-8f62-4211-9d74-189d89d9416d))
    (instances
      (project "tornado"
        (path "/015720bc-1f7c-4fca-8388-4043e8b0f20a"
          (reference "D9") (unit 1)
        )
      )
    )
  )

  (symbol (lib_id "Device:R") (at 149.86 119.38 90) (unit 1)
    (in_bom yes) (on_board yes) (dnp no) (fields_autoplaced)
    (uuid 3d289d1c-4b62-495b-a139-3e6d1f6ff918)
    (property "Reference" "R3" (at 149.86 114.3 90)
      (effects (font (size 1.27 1.27)))
    )
    (property "Value" "68" (at 149.86 116.84 90)
      (effects (font (size 1.27 1.27)))
    )
    (property "Footprint" "Resistor_SMD:R_0805_2012Metric_Pad1.20x1.40mm_HandSolder" (at 149.86 121.158 90)
      (effects (font (size 1.27 1.27)) hide)
    )
    (property "Datasheet" "~" (at 149.86 119.38 0)
      (effects (font (size 1.27 1.27)) hide)
    )
    (pin "1" (uuid ab2a2ce8-e826-40ab-96d7-d5628ed8a4ba))
    (pin "2" (uuid efd63185-c7b1-429d-873e-3a1f2736d488))
    (instances
      (project "tornado"
        (path "/015720bc-1f7c-4fca-8388-4043e8b0f20a"
          (reference "R3") (unit 1)
        )
      )
      (project "chaser6"
        (path "/f19750a6-fe49-41e7-af2b-e0ac114523b3"
          (reference "R3") (unit 1)
        )
      )
    )
  )

  (symbol (lib_id "Device:LED") (at 201.93 107.95 0) (mirror y) (unit 1)
    (in_bom yes) (on_board yes) (dnp no)
    (uuid 497678d2-a2a5-418a-9454-02b6bbaeb3a8)
    (property "Reference" "D10" (at 203.5175 102.87 0)
      (effects (font (size 1.27 1.27)))
    )
    (property "Value" "LED" (at 203.5175 105.41 0)
      (effects (font (size 1.27 1.27)))
    )
    (property "Footprint" "LED_SMD:LED_0805_2012Metric_Pad1.15x1.40mm_HandSolder" (at 201.93 107.95 0)
      (effects (font (size 1.27 1.27)) hide)
    )
    (property "Datasheet" "~" (at 201.93 107.95 0)
      (effects (font (size 1.27 1.27)) hide)
    )
    (pin "1" (uuid ec589709-db7a-4720-a540-6f3f22d2797d))
    (pin "2" (uuid 0fd5495c-637e-4b7f-a54b-107103e9c0df))
    (instances
      (project "tornado"
        (path "/015720bc-1f7c-4fca-8388-4043e8b0f20a"
          (reference "D10") (unit 1)
        )
      )
    )
  )

  (symbol (lib_id "Device:LED") (at 181.61 92.71 0) (mirror y) (unit 1)
    (in_bom yes) (on_board yes) (dnp no)
    (uuid 4bce86f8-4cc2-4fa0-b09c-d7c811574aa0)
    (property "Reference" "D2" (at 183.1975 87.63 0)
      (effects (font (size 1.27 1.27)))
    )
    (property "Value" "LED" (at 183.1975 90.17 0)
      (effects (font (size 1.27 1.27)))
    )
    (property "Footprint" "LED_SMD:LED_0805_2012Metric_Pad1.15x1.40mm_HandSolder" (at 181.61 92.71 0)
      (effects (font (size 1.27 1.27)) hide)
    )
    (property "Datasheet" "~" (at 181.61 92.71 0)
      (effects (font (size 1.27 1.27)) hide)
    )
    (pin "1" (uuid f7317f93-b482-43d5-8c9a-0d54ef0a5b0a))
    (pin "2" (uuid df877f6f-ccd7-4d20-8353-5940a35adbd0))
    (instances
      (project "tornado"
        (path "/015720bc-1f7c-4fca-8388-4043e8b0f20a"
          (reference "D2") (unit 1)
        )
      )
    )
  )

  (symbol (lib_id "Device:LED") (at 181.61 102.87 0) (unit 1)
    (in_bom yes) (on_board yes) (dnp no) (fields_autoplaced)
    (uuid 4db0bd3a-311c-40c3-91b6-246f097e882c)
    (property "Reference" "D3" (at 180.0225 97.79 0)
      (effects (font (size 1.27 1.27)))
    )
    (property "Value" "LED" (at 180.0225 100.33 0)
      (effects (font (size 1.27 1.27)))
    )
    (property "Footprint" "LED_SMD:LED_0805_2012Metric_Pad1.15x1.40mm_HandSolder" (at 181.61 102.87 0)
      (effects (font (size 1.27 1.27)) hide)
    )
    (property "Datasheet" "~" (at 181.61 102.87 0)
      (effects (font (size 1.27 1.27)) hide)
    )
    (pin "1" (uuid d6f5e355-8b23-4f92-89b8-bf5d34d00135))
    (pin "2" (uuid 856de018-386d-4334-91e2-456cd8bd9fd0))
    (instances
      (project "tornado"
        (path "/015720bc-1f7c-4fca-8388-4043e8b0f20a"
          (reference "D3") (unit 1)
        )
      )
    )
  )

  (symbol (lib_id "power:GND") (at 111.76 96.52 0) (unit 1)
    (in_bom yes) (on_board yes) (dnp no) (fields_autoplaced)
    (uuid 5143c3a8-3d12-49c9-9f2a-c5988e799605)
    (property "Reference" "#PWR02" (at 111.76 102.87 0)
      (effects (font (size 1.27 1.27)) hide)
    )
    (property "Value" "GND" (at 111.76 101.6 0)
      (effects (font (size 1.27 1.27)))
    )
    (property "Footprint" "" (at 111.76 96.52 0)
      (effects (font (size 1.27 1.27)) hide)
    )
    (property "Datasheet" "" (at 111.76 96.52 0)
      (effects (font (size 1.27 1.27)) hide)
    )
    (pin "1" (uuid affcb83a-350c-4965-99c8-9a69c86f7a25))
    (instances
      (project "tornado"
        (path "/015720bc-1f7c-4fca-8388-4043e8b0f20a"
          (reference "#PWR02") (unit 1)
        )
      )
      (project "chaser6"
        (path "/f19750a6-fe49-41e7-af2b-e0ac114523b3"
          (reference "#PWR04") (unit 1)
        )
      )
    )
  )

  (symbol (lib_id "Connector:Conn_01x08_Pin") (at 177.8 49.53 0) (unit 1)
    (in_bom yes) (on_board yes) (dnp no) (fields_autoplaced)
    (uuid 55b40cf4-6788-4fe5-bf11-0a38084af36d)
    (property "Reference" "J1" (at 178.435 38.1 0)
      (effects (font (size 1.27 1.27)))
    )
    (property "Value" "Conn_01x08_Pin" (at 178.435 40.64 0)
      (effects (font (size 1.27 1.27)))
    )
    (property "Footprint" "art:tornado" (at 177.8 49.53 0)
      (effects (font (size 1.27 1.27)) hide)
    )
    (property "Datasheet" "~" (at 177.8 49.53 0)
      (effects (font (size 1.27 1.27)) hide)
    )
    (pin "1" (uuid cd2be467-67a5-49c4-9981-9f246b653bf0))
    (pin "2" (uuid c395f3ef-eabf-4003-b6ca-f08d9471ed54))
    (pin "3" (uuid 3a86c894-98db-4183-9bcf-5cb09ff2294e))
    (pin "4" (uuid dd032760-f944-44ae-9f1a-9490a29ae251))
    (pin "5" (uuid 51a7a1f9-ab4b-4d87-9e64-33fb18e10b53))
    (pin "6" (uuid ded25ad0-6af4-4886-a970-4508bc8e777a))
    (pin "7" (uuid f2a5ddfd-8998-432b-b242-5a6ac13ce92c))
    (pin "8" (uuid 8f63727a-74f5-4292-9720-22db77199f2f))
    (instances
      (project "tornado"
        (path "/015720bc-1f7c-4fca-8388-4043e8b0f20a"
          (reference "J1") (unit 1)
        )
      )
    )
  )

  (symbol (lib_id "Device:LED") (at 181.61 107.95 0) (mirror y) (unit 1)
    (in_bom yes) (on_board yes) (dnp no)
    (uuid 59ead023-86c2-4a54-bbc5-b35f092d42e7)
    (property "Reference" "D4" (at 183.1975 102.87 0)
      (effects (font (size 1.27 1.27)))
    )
    (property "Value" "LED" (at 183.1975 105.41 0)
      (effects (font (size 1.27 1.27)))
    )
    (property "Footprint" "LED_SMD:LED_0805_2012Metric_Pad1.15x1.40mm_HandSolder" (at 181.61 107.95 0)
      (effects (font (size 1.27 1.27)) hide)
    )
    (property "Datasheet" "~" (at 181.61 107.95 0)
      (effects (font (size 1.27 1.27)) hide)
    )
    (pin "1" (uuid 7eef4246-42bf-4752-828a-050d561049ae))
    (pin "2" (uuid dfdf590e-d798-47d7-902a-f51fa0626817))
    (instances
      (project "tornado"
        (path "/015720bc-1f7c-4fca-8388-4043e8b0f20a"
          (reference "D4") (unit 1)
        )
      )
    )
  )

  (symbol (lib_id "Device:LED") (at 201.93 118.11 0) (unit 1)
    (in_bom yes) (on_board yes) (dnp no) (fields_autoplaced)
    (uuid 6a4aa2e1-ea53-4c01-9eb7-5a13de68d1b9)
    (property "Reference" "D11" (at 200.3425 113.03 0)
      (effects (font (size 1.27 1.27)))
    )
    (property "Value" "LED" (at 200.3425 115.57 0)
      (effects (font (size 1.27 1.27)))
    )
    (property "Footprint" "LED_SMD:LED_0805_2012Metric_Pad1.15x1.40mm_HandSolder" (at 201.93 118.11 0)
      (effects (font (size 1.27 1.27)) hide)
    )
    (property "Datasheet" "~" (at 201.93 118.11 0)
      (effects (font (size 1.27 1.27)) hide)
    )
    (pin "1" (uuid abe885bd-c134-4c28-ac92-a68c8b8194a0))
    (pin "2" (uuid c4364f62-54d6-4d53-a4b1-3f92281b9ff8))
    (instances
      (project "tornado"
        (path "/015720bc-1f7c-4fca-8388-4043e8b0f20a"
          (reference "D11") (unit 1)
        )
      )
    )
  )

  (symbol (lib_id "Device:LED") (at 181.61 138.43 0) (mirror y) (unit 1)
    (in_bom yes) (on_board yes) (dnp no)
    (uuid 6bfa6900-0ba3-4f4c-bf94-3ed67804c6c8)
    (property "Reference" "D8" (at 183.1975 133.35 0)
      (effects (font (size 1.27 1.27)))
    )
    (property "Value" "LED" (at 183.1975 135.89 0)
      (effects (font (size 1.27 1.27)))
    )
    (property "Footprint" "LED_SMD:LED_0805_2012Metric_Pad1.15x1.40mm_HandSolder" (at 181.61 138.43 0)
      (effects (font (size 1.27 1.27)) hide)
    )
    (property "Datasheet" "~" (at 181.61 138.43 0)
      (effects (font (size 1.27 1.27)) hide)
    )
    (pin "1" (uuid 6758225b-89db-496b-8214-ad1e1c49fc5a))
    (pin "2" (uuid a11d66d3-3ef2-4ced-8a40-2a9620d0d64c))
    (instances
      (project "tornado"
        (path "/015720bc-1f7c-4fca-8388-4043e8b0f20a"
          (reference "D8") (unit 1)
        )
      )
    )
  )

  (symbol (lib_id "power:+5V") (at 149.86 36.83 0) (unit 1)
    (in_bom yes) (on_board yes) (dnp no) (fields_autoplaced)
    (uuid 7f662358-3604-490f-b86f-14003b516959)
    (property "Reference" "#PWR03" (at 149.86 40.64 0)
      (effects (font (size 1.27 1.27)) hide)
    )
    (property "Value" "+5V" (at 149.86 33.02 0)
      (effects (font (size 1.27 1.27)))
    )
    (property "Footprint" "" (at 149.86 36.83 0)
      (effects (font (size 1.27 1.27)) hide)
    )
    (property "Datasheet" "" (at 149.86 36.83 0)
      (effects (font (size 1.27 1.27)) hide)
    )
    (pin "1" (uuid eba624af-f9d6-4515-a3fa-5890100eb57a))
    (instances
      (project "tornado"
        (path "/015720bc-1f7c-4fca-8388-4043e8b0f20a"
          (reference "#PWR03") (unit 1)
        )
      )
      (project "chaser6"
        (path "/f19750a6-fe49-41e7-af2b-e0ac114523b3"
          (reference "#PWR02") (unit 1)
        )
      )
    )
  )

  (symbol (lib_id "Device:LED") (at 181.61 87.63 0) (unit 1)
    (in_bom yes) (on_board yes) (dnp no) (fields_autoplaced)
    (uuid 89ecc773-3ca1-4a25-ba84-2c7621f35cf4)
    (property "Reference" "D1" (at 180.0225 82.55 0)
      (effects (font (size 1.27 1.27)))
    )
    (property "Value" "LED" (at 180.0225 85.09 0)
      (effects (font (size 1.27 1.27)))
    )
    (property "Footprint" "LED_SMD:LED_0805_2012Metric_Pad1.15x1.40mm_HandSolder" (at 181.61 87.63 0)
      (effects (font (size 1.27 1.27)) hide)
    )
    (property "Datasheet" "~" (at 181.61 87.63 0)
      (effects (font (size 1.27 1.27)) hide)
    )
    (pin "1" (uuid 5e9c87a8-7f90-4a46-9404-ad7426c40a94))
    (pin "2" (uuid 79c9998b-8b76-4eed-853b-76252188dd3b))
    (instances
      (project "tornado"
        (path "/015720bc-1f7c-4fca-8388-4043e8b0f20a"
          (reference "D1") (unit 1)
        )
      )
    )
  )

  (symbol (lib_id "Device:R") (at 149.86 90.17 90) (unit 1)
    (in_bom yes) (on_board yes) (dnp no) (fields_autoplaced)
    (uuid b131e492-d273-4cdf-bcc2-2ac78f14f346)
    (property "Reference" "R1" (at 149.86 85.09 90)
      (effects (font (size 1.27 1.27)))
    )
    (property "Value" "120" (at 149.86 87.63 90)
      (effects (font (size 1.27 1.27)))
    )
    (property "Footprint" "Resistor_SMD:R_0805_2012Metric_Pad1.20x1.40mm_HandSolder" (at 149.86 91.948 90)
      (effects (font (size 1.27 1.27)) hide)
    )
    (property "Datasheet" "~" (at 149.86 90.17 0)
      (effects (font (size 1.27 1.27)) hide)
    )
    (pin "1" (uuid dc9c9398-6930-4e1d-8653-2353ab34f881))
    (pin "2" (uuid 23ea1c6d-3654-4456-a170-f6970bfdf91d))
    (instances
      (project "tornado"
        (path "/015720bc-1f7c-4fca-8388-4043e8b0f20a"
          (reference "R1") (unit 1)
        )
      )
      (project "chaser6"
        (path "/f19750a6-fe49-41e7-af2b-e0ac114523b3"
          (reference "R1") (unit 1)
        )
      )
    )
  )

  (symbol (lib_id "Connector_Generic:Conn_02x03_Odd_Even") (at 142.24 39.37 0) (unit 1)
    (in_bom yes) (on_board yes) (dnp no) (fields_autoplaced)
    (uuid b37674d9-dbe1-4353-a493-63d7391b2388)
    (property "Reference" "J2" (at 143.51 31.75 0)
      (effects (font (size 1.27 1.27)))
    )
    (property "Value" "Conn_02x03_Odd_Even" (at 143.51 34.29 0)
      (effects (font (size 1.27 1.27)))
    )
    (property "Footprint" "Connector_PinSocket_2.54mm:PinSocket_2x03_P2.54mm_Vertical" (at 142.24 39.37 0)
      (effects (font (size 1.27 1.27)) hide)
    )
    (property "Datasheet" "~" (at 142.24 39.37 0)
      (effects (font (size 1.27 1.27)) hide)
    )
    (pin "1" (uuid a61bfc58-2978-4847-8259-98765b710314))
    (pin "2" (uuid 9f05967e-f85d-4673-a541-62f0254e51a2))
    (pin "3" (uuid cf5811fb-6092-4424-b01b-9f0d713e6753))
    (pin "4" (uuid 806dc0ce-915a-4bbe-8293-330e66d11390))
    (pin "5" (uuid d9436a33-15f3-41dc-b540-b96bf5955e6f))
    (pin "6" (uuid 3fbb84f0-da18-4717-912d-c6eb6023f3b6))
    (instances
      (project "tornado"
        (path "/015720bc-1f7c-4fca-8388-4043e8b0f20a"
          (reference "J2") (unit 1)
        )
      )
      (project "chaser6"
        (path "/f19750a6-fe49-41e7-af2b-e0ac114523b3"
          (reference "J1") (unit 1)
        )
      )
    )
  )

  (symbol (lib_id "power:GND") (at 149.86 41.91 0) (unit 1)
    (in_bom yes) (on_board yes) (dnp no) (fields_autoplaced)
    (uuid b6e18774-95cd-4416-b115-b323debf86c6)
    (property "Reference" "#PWR04" (at 149.86 48.26 0)
      (effects (font (size 1.27 1.27)) hide)
    )
    (property "Value" "GND" (at 149.86 46.99 0)
      (effects (font (size 1.27 1.27)))
    )
    (property "Footprint" "" (at 149.86 41.91 0)
      (effects (font (size 1.27 1.27)) hide)
    )
    (property "Datasheet" "" (at 149.86 41.91 0)
      (effects (font (size 1.27 1.27)) hide)
    )
    (pin "1" (uuid df76b820-0f15-48e8-abbd-6ea67c00efda))
    (instances
      (project "tornado"
        (path "/015720bc-1f7c-4fca-8388-4043e8b0f20a"
          (reference "#PWR04") (unit 1)
        )
      )
      (project "chaser6"
        (path "/f19750a6-fe49-41e7-af2b-e0ac114523b3"
          (reference "#PWR03") (unit 1)
        )
      )
    )
  )

  (symbol (lib_id "Device:LED") (at 181.61 133.35 0) (unit 1)
    (in_bom yes) (on_board yes) (dnp no) (fields_autoplaced)
    (uuid b728ae9c-0e06-4d72-9772-ec403ff7d550)
    (property "Reference" "D7" (at 180.0225 128.27 0)
      (effects (font (size 1.27 1.27)))
    )
    (property "Value" "LED" (at 180.0225 130.81 0)
      (effects (font (size 1.27 1.27)))
    )
    (property "Footprint" "LED_SMD:LED_0805_2012Metric_Pad1.15x1.40mm_HandSolder" (at 181.61 133.35 0)
      (effects (font (size 1.27 1.27)) hide)
    )
    (property "Datasheet" "~" (at 181.61 133.35 0)
      (effects (font (size 1.27 1.27)) hide)
    )
    (pin "1" (uuid 9cf4adbd-9e8a-4661-981d-705002cc5eb5))
    (pin "2" (uuid 7bfc1f58-8a03-4d1e-bd22-6d07efc9dc02))
    (instances
      (project "tornado"
        (path "/015720bc-1f7c-4fca-8388-4043e8b0f20a"
          (reference "D7") (unit 1)
        )
      )
    )
  )

  (symbol (lib_id "power:+5V") (at 111.76 66.04 0) (unit 1)
    (in_bom yes) (on_board yes) (dnp no) (fields_autoplaced)
    (uuid ba3fd268-0a64-44ac-8fcf-cb317a3d8934)
    (property "Reference" "#PWR01" (at 111.76 69.85 0)
      (effects (font (size 1.27 1.27)) hide)
    )
    (property "Value" "+5V" (at 111.76 62.23 0)
      (effects (font (size 1.27 1.27)))
    )
    (property "Footprint" "" (at 111.76 66.04 0)
      (effects (font (size 1.27 1.27)) hide)
    )
    (property "Datasheet" "" (at 111.76 66.04 0)
      (effects (font (size 1.27 1.27)) hide)
    )
    (pin "1" (uuid 1a4a854e-0b52-4973-aa26-01080167c225))
    (instances
      (project "tornado"
        (path "/015720bc-1f7c-4fca-8388-4043e8b0f20a"
          (reference "#PWR01") (unit 1)
        )
      )
      (project "chaser6"
        (path "/f19750a6-fe49-41e7-af2b-e0ac114523b3"
          (reference "#PWR01") (unit 1)
        )
      )
    )
  )

  (symbol (lib_id "Device:LED") (at 201.93 123.19 0) (mirror y) (unit 1)
    (in_bom yes) (on_board yes) (dnp no)
    (uuid bfff6488-f3d4-4917-9edd-ffa8475432e6)
    (property "Reference" "D12" (at 203.5175 118.11 0)
      (effects (font (size 1.27 1.27)))
    )
    (property "Value" "LED" (at 203.5175 120.65 0)
      (effects (font (size 1.27 1.27)))
    )
    (property "Footprint" "LED_SMD:LED_0805_2012Metric_Pad1.15x1.40mm_HandSolder" (at 201.93 123.19 0)
      (effects (font (size 1.27 1.27)) hide)
    )
    (property "Datasheet" "~" (at 201.93 123.19 0)
      (effects (font (size 1.27 1.27)) hide)
    )
    (pin "1" (uuid 3be2beea-ff33-4214-b189-54546c2ed041))
    (pin "2" (uuid 437ad1bd-69fe-4b9f-80e5-7ed8b7c2080d))
    (instances
      (project "tornado"
        (path "/015720bc-1f7c-4fca-8388-4043e8b0f20a"
          (reference "D12") (unit 1)
        )
      )
    )
  )

  (symbol (lib_id "Device:R") (at 149.86 129.54 90) (unit 1)
    (in_bom yes) (on_board yes) (dnp no) (fields_autoplaced)
    (uuid e95e2e4f-88e3-470f-aaf3-f2e054c31ec7)
    (property "Reference" "R4" (at 149.86 124.46 90)
      (effects (font (size 1.27 1.27)))
    )
    (property "Value" "68" (at 149.86 127 90)
      (effects (font (size 1.27 1.27)))
    )
    (property "Footprint" "Resistor_SMD:R_0805_2012Metric_Pad1.20x1.40mm_HandSolder" (at 149.86 131.318 90)
      (effects (font (size 1.27 1.27)) hide)
    )
    (property "Datasheet" "~" (at 149.86 129.54 0)
      (effects (font (size 1.27 1.27)) hide)
    )
    (pin "1" (uuid 14c27acd-298f-4792-95a8-ac9a27320031))
    (pin "2" (uuid 2bda5484-5d2c-4dfc-a734-2d764e8d7d0f))
    (instances
      (project "tornado"
        (path "/015720bc-1f7c-4fca-8388-4043e8b0f20a"
          (reference "R4") (unit 1)
        )
      )
      (project "chaser6"
        (path "/f19750a6-fe49-41e7-af2b-e0ac114523b3"
          (reference "R3") (unit 1)
        )
      )
    )
  )

  (symbol (lib_id "Device:R") (at 149.86 104.14 90) (unit 1)
    (in_bom yes) (on_board yes) (dnp no) (fields_autoplaced)
    (uuid eab2a1c7-f077-4585-8485-3260991fb851)
    (property "Reference" "R2" (at 149.86 99.06 90)
      (effects (font (size 1.27 1.27)))
    )
    (property "Value" "68" (at 149.86 101.6 90)
      (effects (font (size 1.27 1.27)))
    )
    (property "Footprint" "Resistor_SMD:R_0805_2012Metric_Pad1.20x1.40mm_HandSolder" (at 149.86 105.918 90)
      (effects (font (size 1.27 1.27)) hide)
    )
    (property "Datasheet" "~" (at 149.86 104.14 0)
      (effects (font (size 1.27 1.27)) hide)
    )
    (pin "1" (uuid c920bdb1-ed2b-403e-a129-b4aa1341303e))
    (pin "2" (uuid 7724264c-234f-4fdd-90fe-dab828f41d64))
    (instances
      (project "tornado"
        (path "/015720bc-1f7c-4fca-8388-4043e8b0f20a"
          (reference "R2") (unit 1)
        )
      )
      (project "chaser6"
        (path "/f19750a6-fe49-41e7-af2b-e0ac114523b3"
          (reference "R2") (unit 1)
        )
      )
    )
  )

  (symbol (lib_id "Device:LED") (at 181.61 118.11 0) (unit 1)
    (in_bom yes) (on_board yes) (dnp no) (fields_autoplaced)
    (uuid f571af7c-acb1-4b9a-aa70-0f212202f0b0)
    (property "Reference" "D5" (at 180.0225 113.03 0)
      (effects (font (size 1.27 1.27)))
    )
    (property "Value" "LED" (at 180.0225 115.57 0)
      (effects (font (size 1.27 1.27)))
    )
    (property "Footprint" "LED_SMD:LED_0805_2012Metric_Pad1.15x1.40mm_HandSolder" (at 181.61 118.11 0)
      (effects (font (size 1.27 1.27)) hide)
    )
    (property "Datasheet" "~" (at 181.61 118.11 0)
      (effects (font (size 1.27 1.27)) hide)
    )
    (pin "1" (uuid 1b01ab51-2ee4-44ce-a333-da2c57f363de))
    (pin "2" (uuid 098ec9ce-b0ce-4449-9d7b-a17ca3ed34b9))
    (instances
      (project "tornado"
        (path "/015720bc-1f7c-4fca-8388-4043e8b0f20a"
          (reference "D5") (unit 1)
        )
      )
    )
  )

  (sheet_instances
    (path "/" (page "1"))
  )
)
